C:\Users\vikarana\eclipse-workspace\videogame.simulation\src\main\java\com\video\game\videogame\simulation\Audition.java
C:\Users\vikarana\eclipse-workspace\videogame.simulation\src\main\java\com\video\game\videogame\simulation\Performer.java
C:\Users\vikarana\eclipse-workspace\videogame.simulation\src\main\java\com\video\game\videogame\simulation\Vocalist.java
C:\Users\vikarana\eclipse-workspace\videogame.simulation\src\main\java\com\video\game\videogame\simulation\Dancer.java
C:\Users\vikarana\eclipse-workspace\videogame.simulation\src\main\java\com\video\game\videogame\simulation\Announce.java
